…
### Overview/summary of "ToothGrowth"

            summary(dftooth)

    ##       len        supp         dose      
    ##  Min.   : 4.20   OJ:30   Min.   :0.500  
    ##  1st Qu.:13.07   VC:30   1st Qu.:0.500  
    ##  Median :19.25           Median :1.000  
    ##  Mean   :18.81           Mean   :1.167  
    ##  3rd Qu.:25.27           3rd Qu.:2.000  
    ##  Max.   :33.90           Max.   :2.000

            dftooth

    ## # A tibble: 60 × 3
    ##      len   supp  dose
    ##    <dbl> <fctr> <dbl>
    ## 1    4.2     VC   0.5
    ## 2   11.5     VC   0.5
    ## 3    7.3     VC   0.5
    ## 4    5.8     VC   0.5
    ## 5    6.4     VC   0.5
    ## 6   10.0     VC   0.5
    ## 7   11.2     VC   0.5
    ## 8   11.2     VC   0.5
    ## 9    5.2     VC   0.5
    ## 10   7.0     VC   0.5
    ## # ... with 50 more rows
…
